{
  "content": [
    {
      "amount": 925.65,
      "id": 1,
      "createdAt": "2020-02-03T10:38:01.019",
      "updatedAt": "2020-02-03T10:38:01.019"
    },
    {
      "amount": 273.75,
      "id": 2,
      "createdAt": "2020-02-03T10:38:01.019",
      "updatedAt": "2020-02-03T10:38:01.019"
    },
    {
      "amount": 242.18,
      "id": 3,
      "createdAt": "2020-02-03T10:38:01.019",
      "updatedAt": "2020-02-03T10:38:01.019"
    },
    {
      "amount": 273.04,
      "id": 4,
      "createdAt": "2020-02-03T10:38:01.019",
      "updatedAt": "2020-02-03T10:38:01.019"
    },
    {
      "amount": 238.30,
      "id": 5,
      "createdAt": "2020-02-03T10:38:01.019",
      "updatedAt": "2020-02-03T10:38:01.019"
    },
    {
      "amount": 59.01,
      "id": 6,
      "createdAt": "2020-02-03T10:38:01.019",
      "updatedAt": "2020-02-03T10:38:01.019"
    },
    {
      "amount": 815.81,
      "id": 7,
      "createdAt": "2020-02-03T10:38:01.019",
      "updatedAt": "2020-02-03T10:38:01.019"
    },
    {
      "amount": 41.63,
      "id": 8,
      "createdAt": "2020-02-03T10:38:01.019",
      "updatedAt": "2020-02-03T10:38:01.019"
    },
    {
      "amount": 853.85,
      "id": 10,
      "createdAt": "2020-02-03T10:38:01.019",
      "updatedAt": "2020-02-03T10:38:01.019"
    },
    {
      "amount": 747.56,
      "id": 11,
      "createdAt": "2020-02-03T10:38:01.019",
      "updatedAt": "2020-02-03T10:38:01.019"
    }
  ],
  "pageable": {
    "sort": {
      "sorted": false,
      "unsorted": true,
      "empty": true
    },
    "offset": 0,
    "pageNumber": 0,
    "pageSize": 10,
    "unpaged": false,
    "paged": true
  },
  "last": false,
  "totalElements": 2253,
  "totalPages": 226,
  "size": 10,
  "number": 0,
  "sort": {
    "sorted": false,
    "unsorted": true,
    "empty": true
  },
  "first": true,
  "numberOfElements": 10,
  "empty": false
}