{
  "content": [
    {
      "amount": 586.69,
      "id": 1,
      "createdAt": "2020-02-02T13:56:24.942",
      "updatedAt": "2020-02-02T13:56:24.942"
    },
    {
      "amount": 813.11,
      "id": 3,
      "createdAt": "2020-02-02T13:56:24.942",
      "updatedAt": "2020-02-02T13:56:24.942"
    },
    {
      "amount": 278.97,
      "id": 4,
      "createdAt": "2020-02-02T13:56:24.942",
      "updatedAt": "2020-02-02T13:56:24.942"
    },
    {
      "amount": 658.96,
      "id": 5,
      "createdAt": "2020-02-02T13:56:24.942",
      "updatedAt": "2020-02-02T13:56:24.942"
    },
    {
      "amount": 652.05,
      "id": 6,
      "createdAt": "2020-02-02T13:56:24.942",
      "updatedAt": "2020-02-02T13:56:24.942"
    },
    {
      "amount": 61.25,
      "id": 7,
      "createdAt": "2020-02-02T13:56:24.942",
      "updatedAt": "2020-02-02T13:56:24.942"
    },
    {
      "amount": 807.59,
      "id": 8,
      "createdAt": "2020-02-02T13:56:24.942",
      "updatedAt": "2020-02-02T13:56:24.942"
    },
    {
      "amount": 663.27,
      "id": 9,
      "createdAt": "2020-02-02T13:56:24.942",
      "updatedAt": "2020-02-02T13:56:24.942"
    },
    {
      "amount": 267.73,
      "id": 10,
      "createdAt": "2020-02-02T13:56:24.942",
      "updatedAt": "2020-02-02T13:56:24.942"
    },
    {
      "amount": 73.71,
      "id": 11,
      "createdAt": "2020-02-02T13:56:24.942",
      "updatedAt": "2020-02-02T13:56:24.942"
    }
  ],
  "pageable": {
    "sort": {
      "unsorted": true,
      "sorted": false,
      "empty": true
    },
    "offset": 0,
    "pageNumber": 0,
    "pageSize": 10,
    "unpaged": false,
    "paged": true
  },
  "last": false,
  "totalPages": 224,
  "totalElements": 2232,
  "sort": {
    "unsorted": true,
    "sorted": false,
    "empty": true
  },
  "size": 10,
  "number": 0,
  "first": true,
  "numberOfElements": 10,
  "empty": false
}